Lab4/waveform.vcd
$version Generated by VerilatedVcd $end
$timescale 1s $end

 $scope module TOP $end
  $var wire  1 ,! clk $end
  $var wire 32 .! r[0] [31:0] $end
  $var wire 32 8! r[10] [31:0] $end
  $var wire 32 9! r[11] [31:0] $end
  $var wire 32 :! r[12] [31:0] $end
  $var wire 32 ;! r[13] [31:0] $end
  $var wire 32 <! r[14] [31:0] $end
  $var wire 32 =! r[15] [31:0] $end
  $var wire 32 >! r[16] [31:0] $end
  $var wire 32 ?! r[17] [31:0] $end
  $var wire 32 @! r[18] [31:0] $end
  $var wire 32 A! r[19] [31:0] $end
  $var wire 32 /! r[1] [31:0] $end
  $var wire 32 B! r[20] [31:0] $end
  $var wire 32 C! r[21] [31:0] $end
  $var wire 32 D! r[22] [31:0] $end
  $var wire 32 E! r[23] [31:0] $end
  $var wire 32 F! r[24] [31:0] $end
  $var wire 32 G! r[25] [31:0] $end
  $var wire 32 H! r[26] [31:0] $end
  $var wire 32 I! r[27] [31:0] $end
  $var wire 32 J! r[28] [31:0] $end
  $var wire 32 K! r[29] [31:0] $end
  $var wire 32 0! r[2] [31:0] $end
  $var wire 32 L! r[30] [31:0] $end
  $var wire 32 M! r[31] [31:0] $end
  $var wire 32 1! r[3] [31:0] $end
  $var wire 32 2! r[4] [31:0] $end
  $var wire 32 3! r[5] [31:0] $end
  $var wire 32 4! r[6] [31:0] $end
  $var wire 32 5! r[7] [31:0] $end
  $var wire 32 6! r[8] [31:0] $end
  $var wire 32 7! r[9] [31:0] $end
  $var wire  1 -! start $end
  $scope module PipelineCPU $end
   $var wire  4 t ALUCtl [3:0] $end
   $var wire  2 S ALUOp_EX [1:0] $end
   $var wire  2 } ALUOp_ID [1:0] $end
   $var wire 32 q ALUOut_EX [31:0] $end
   $var wire 32 r ALUOut_MEM [31:0] $end
   $var wire 32 M ALUOut_WB [31:0] $end
   $var wire  1 V ALUSrc_EX $end
   $var wire  1 #! ALUSrc_ID $end
   $var wire 32 T! Adder2_out [31:0] $end
   $var wire  1 $! BrEq $end
   $var wire  1 %! BrLT $end
   $var wire 32 S! DMEM_out_MEM [31:0] $end
   $var wire 32 N DMEM_out_WB [31:0] $end
   $var wire  1 x Flush_HD $end
   $var wire  1 &! Flush_ctrl $end
   $var wire 32 ` ForwardA_EX [31:0] $end
   $var wire 32 y ForwardA_EX_out [31:0] $end
   $var wire 32 (! ForwardA_ID [31:0] $end
   $var wire 32 a ForwardB_EX [31:0] $end
   $var wire 32 z ForwardB_EX_out [31:0] $end
   $var wire 32 )! ForwardB_ID [31:0] $end
   $var wire 32 b ForwardB_MEM_out [31:0] $end
   $var wire 32 I IMEM_out_EX [31:0] $end
   $var wire 32 E IMEM_out_ID [31:0] $end
   $var wire 32 p IMEM_out_IF [31:0] $end
   $var wire 32 K IMEM_out_MEM [31:0] $end
   $var wire 32 O IMEM_out_WB [31:0] $end
   $var wire 32 G IMMGEN_out_EX [31:0] $end
   $var wire 32 F IMMGEN_out_ID [31:0] $end
   $var wire 32 Q IMMGEN_out_shift [31:0] $end
   $var wire 32 s Mux_ALU [31:0] $end
   $var wire  2 { PCSel [1:0] $end
   $var wire 32 N! PC_MUX1_out [31:0] $end
   $var wire 32 P! PC_R1_out [31:0] $end
   $var wire 32 O! PC_counter [31:0] $end
   $var wire 32 C PC_out_ID [31:0] $end
   $var wire 32 n PC_out_IF [31:0] $end
   $var wire 32 H PC_plus4_EX [31:0] $end
   $var wire 32 D PC_plus4_ID [31:0] $end
   $var wire 32 o PC_plus4_IF [31:0] $end
   $var wire 32 J PC_plus4_MEM [31:0] $end
   $var wire 32 L PC_plus4_WB [31:0] $end
   $var wire  1 '! PCorR1 $end
   $var wire  1 w RePC $end
   $var wire  1 ,! clk $end
   $var wire  2 ^ ex_ForwardA [1:0] $end
   $var wire  2 _ ex_ForwardB [1:0] $end
   $var wire  2 \ id_ForwardA [1:0] $end
   $var wire  2 ] id_ForwardB [1:0] $end
   $var wire  1 u memRead_EX $end
   $var wire  1 !! memRead_ID $end
   $var wire  1 v memRead_MEM $end
   $var wire  1 U memWrite_EX $end
   $var wire  1 "! memWrite_ID $end
   $var wire  1 Y memWrite_MEM $end
   $var wire  2 R memtoReg_EX [1:0] $end
   $var wire  2 | memtoReg_ID [1:0] $end
   $var wire  2 W memtoReg_MEM [1:0] $end
   $var wire  2 Z memtoReg_WB [1:0] $end
   $var wire 32 .! r[0] [31:0] $end
   $var wire 32 8! r[10] [31:0] $end
   $var wire 32 9! r[11] [31:0] $end
   $var wire 32 :! r[12] [31:0] $end
   $var wire 32 ;! r[13] [31:0] $end
   $var wire 32 <! r[14] [31:0] $end
   $var wire 32 =! r[15] [31:0] $end
   $var wire 32 >! r[16] [31:0] $end
   $var wire 32 ?! r[17] [31:0] $end
   $var wire 32 @! r[18] [31:0] $end
   $var wire 32 A! r[19] [31:0] $end
   $var wire 32 /! r[1] [31:0] $end
   $var wire 32 B! r[20] [31:0] $end
   $var wire 32 C! r[21] [31:0] $end
   $var wire 32 D! r[22] [31:0] $end
   $var wire 32 E! r[23] [31:0] $end
   $var wire 32 F! r[24] [31:0] $end
   $var wire 32 G! r[25] [31:0] $end
   $var wire 32 H! r[26] [31:0] $end
   $var wire 32 I! r[27] [31:0] $end
   $var wire 32 J! r[28] [31:0] $end
   $var wire 32 K! r[29] [31:0] $end
   $var wire 32 0! r[2] [31:0] $end
   $var wire 32 L! r[30] [31:0] $end
   $var wire 32 M! r[31] [31:0] $end
   $var wire 32 1! r[3] [31:0] $end
   $var wire 32 2! r[4] [31:0] $end
   $var wire 32 3! r[5] [31:0] $end
   $var wire 32 4! r[6] [31:0] $end
   $var wire 32 5! r[7] [31:0] $end
   $var wire 32 6! r[8] [31:0] $end
   $var wire 32 7! r[9] [31:0] $end
   $var wire 32 U! readData1_EX [31:0] $end
   $var wire 32 Q! readData1_ID [31:0] $end
   $var wire 32 V! readData2_EX [31:0] $end
   $var wire 32 R! readData2_ID [31:0] $end
   $var wire 32 W! readData2_MEM [31:0] $end
   $var wire  1 T regWrite_EX $end
   $var wire  1 ~ regWrite_ID $end
   $var wire  1 X regWrite_MEM $end
   $var wire  1 [ regWrite_WB $end
   $var wire  1 -! start $end
   $var wire 32 P writeData [31:0] $end
   $scope module m_ALU $end
    $var wire 32 y A [31:0] $end
    $var wire 32 q ALUOut [31:0] $end
    $var wire  4 t ALUctl [3:0] $end
    $var wire 32 s B [31:0] $end
   $upscope $end
   $scope module m_ALUCtrl $end
    $var wire  4 t ALUCtl [3:0] $end
    $var wire  2 S ALUOp [1:0] $end
    $var wire  3 d funct3 [2:0] $end
    $var wire  1 c funct7 $end
   $upscope $end
   $scope module m_Adder_1 $end
    $var wire 32 n a [31:0] $end
    $var wire 32 X! b [31:0] $end
    $var wire 32 o sum [31:0] $end
   $upscope $end
   $scope module m_Adder_2 $end
    $var wire 32 P! a [31:0] $end
    $var wire 32 Q b [31:0] $end
    $var wire 32 T! sum [31:0] $end
   $upscope $end
   $scope module m_BranchComp $end
    $var wire 32 (! A [31:0] $end
    $var wire 32 )! B [31:0] $end
    $var wire  1 $! BrEq $end
    $var wire  1 %! BrLT $end
   $upscope $end
   $scope module m_Control $end
    $var wire  2 } ALUOp [1:0] $end
    $var wire  1 #! ALUSrc $end
    $var wire  1 $! BrEq $end
    $var wire  1 %! BrLT $end
    $var wire  1 &! Flush_ctrl $end
    $var wire  2 { PCSel [1:0] $end
    $var wire  1 '! PCorR1 $end
    $var wire 12 *! ctrl [11:0] $end
    $var wire  3 f funct3 [2:0] $end
    $var wire  1 !! memRead $end
    $var wire  1 "! memWrite $end
    $var wire  2 | memtoReg [1:0] $end
    $var wire  7 e opcode [6:0] $end
    $var wire  1 ~ regWrite $end
   $upscope $end
   $scope module m_DataMemory $end
    $var wire 32 r address [31:0] $end
    $var wire  1 ,! clk $end
    $var wire  1 v memRead $end
    $var wire  1 Y memWrite $end
    $var wire 32 S! readData [31:0] $end
    $var wire  1 -! rst $end
    $var wire 32 b writeData [31:0] $end
   $upscope $end
   $scope module m_EX_MEM_Reg $end
    $var wire 32 q ALU_i [31:0] $end
    $var wire 32 r ALU_o [31:0] $end
    $var wire  1 ,! clk $end
    $var wire 32 I inst_i [31:0] $end
    $var wire 32 K inst_o [31:0] $end
    $var wire  1 u memRead_i $end
    $var wire  1 v memRead_o $end
    $var wire  1 U memWrite_i $end
    $var wire  1 Y memWrite_o $end
    $var wire  2 R memtoReg_i [1:0] $end
    $var wire  2 W memtoReg_o [1:0] $end
    $var wire 32 H pc_4_i [31:0] $end
    $var wire 32 J pc_4_o [31:0] $end
    $var wire 32 z readData2_i [31:0] $end
    $var wire 32 b readData2_o [31:0] $end
    $var wire  1 T regWrite_i $end
    $var wire  1 X regWrite_o $end
    $var wire  1 -! rst $end
   $upscope $end
   $scope module m_Forwarding_Unit $end
    $var wire  2 ^ ex_ForwardA [1:0] $end
    $var wire  2 _ ex_ForwardB [1:0] $end
    $var wire  5 i ex_R1 [4:0] $end
    $var wire  5 j ex_R2 [4:0] $end
    $var wire  2 \ id_ForwardA [1:0] $end
    $var wire  2 ] id_ForwardB [1:0] $end
    $var wire  5 g id_R1 [4:0] $end
    $var wire  5 h id_R2 [4:0] $end
    $var wire  5 k mem_Rd [4:0] $end
    $var wire  1 X mem_RegWrite $end
    $var wire  5 l wb_Rd [4:0] $end
    $var wire  1 [ wb_RegWrite $end
   $upscope $end
   $scope module m_HazardDetection $end
    $var wire  1 x Flush_HD $end
    $var wire  1 w RePC $end
    $var wire  1 u ex_MemRead $end
    $var wire  5 m ex_Rd [4:0] $end
    $var wire  1 T ex_RegWrite $end
    $var wire  5 g id_R1 [4:0] $end
    $var wire  5 h id_R2 [4:0] $end
    $var wire  5 k mem_Rd [4:0] $end
    $var wire  7 e opcode [6:0] $end
   $upscope $end
   $scope module m_ID_EX_Reg $end
    $var wire  2 S ALUop [1:0] $end
    $var wire  2 } ALUop_i [1:0] $end
    $var wire  1 V ALUsrc $end
    $var wire  1 #! ALUsrc_i $end
    $var wire  1 x Flush_HD $end
    $var wire  1 ,! clk $end
    $var wire 32 F imm_i [31:0] $end
    $var wire 32 G imm_o [31:0] $end
    $var wire 32 E inst_i [31:0] $end
    $var wire 32 I inst_o [31:0] $end
    $var wire  1 !! memRead_i $end
    $var wire  1 u memRead_o $end
    $var wire  1 "! memWrite_i $end
    $var wire  1 U memWrite_o $end
    $var wire  2 | memtoReg_i [1:0] $end
    $var wire  2 R memtoReg_o [1:0] $end
    $var wire 32 D pc_4_i [31:0] $end
    $var wire 32 H pc_4_o [31:0] $end
    $var wire 32 (! readData1_i [31:0] $end
    $var wire 32 ` readData1_o [31:0] $end
    $var wire 32 )! readData2_i [31:0] $end
    $var wire 32 a readData2_o [31:0] $end
    $var wire  1 ~ regWrite_i $end
    $var wire  1 T regWrite_o $end
    $var wire  1 -! rst $end
   $upscope $end
   $scope module m_IF_ID_Reg $end
    $var wire  1 x Flush_HD $end
    $var wire  1 &! Flush_ctrl $end
    $var wire  1 ,! clk $end
    $var wire 32 p inst_i [31:0] $end
    $var wire 32 E inst_o [31:0] $end
    $var wire 32 o pc_4_i [31:0] $end
    $var wire 32 D pc_4_o [31:0] $end
    $var wire 32 n pc_i [31:0] $end
    $var wire 32 C pc_o [31:0] $end
    $var wire  1 -! rst $end
   $upscope $end
   $scope module m_ImmGen $end
    $var wire 32 F imm [31:0] $end
    $var wire 32 E inst [31:0] $end
   $upscope $end
   $scope module m_InstMem $end
    $var wire 32 p inst [31:0] $end
    $var wire 32 n readAddr [31:0] $end
   $upscope $end
   $scope module m_MEM_WB_Reg $end
    $var wire 32 r ALU_i [31:0] $end
    $var wire 32 M ALU_o [31:0] $end
    $var wire  1 ,! clk $end
    $var wire 32 K inst_i [31:0] $end
    $var wire 32 O inst_o [31:0] $end
    $var wire  2 W memtoReg_i [1:0] $end
    $var wire  2 Z memtoReg_o [1:0] $end
    $var wire 32 J pc_4_i [31:0] $end
    $var wire 32 L pc_4_o [31:0] $end
    $var wire 32 S! readData_i [31:0] $end
    $var wire 32 N readData_o [31:0] $end
    $var wire  1 X regWrite_i $end
    $var wire  1 [ regWrite_o $end
    $var wire  1 -! rst $end
   $upscope $end
   $scope module m_Mux_ALU $end
    $var wire 32 s out [31:0] $end
    $var wire 32 z s0 [31:0] $end
    $var wire 32 G s1 [31:0] $end
    $var wire  1 V sel $end
    $var wire 32 Y! size [31:0] $end
   $upscope $end
   $scope module m_Mux_EX_ForwardA $end
    $var wire 32 y out [31:0] $end
    $var wire 32 ` s0 [31:0] $end
    $var wire 32 P s1 [31:0] $end
    $var wire 32 r s2 [31:0] $end
    $var wire  2 ^ sel [1:0] $end
    $var wire 32 Y! size [31:0] $end
   $upscope $end
   $scope module m_Mux_EX_ForwardB $end
    $var wire 32 z out [31:0] $end
    $var wire 32 a s0 [31:0] $end
    $var wire 32 P s1 [31:0] $end
    $var wire 32 r s2 [31:0] $end
    $var wire  2 _ sel [1:0] $end
    $var wire 32 Y! size [31:0] $end
   $upscope $end
   $scope module m_Mux_ID_ForwardA $end
    $var wire 32 (! out [31:0] $end
    $var wire 32 Q! s0 [31:0] $end
    $var wire 32 r s1 [31:0] $end
    $var wire 32 P s2 [31:0] $end
    $var wire  2 \ sel [1:0] $end
    $var wire 32 Y! size [31:0] $end
   $upscope $end
   $scope module m_Mux_ID_ForwardB $end
    $var wire 32 )! out [31:0] $end
    $var wire 32 R! s0 [31:0] $end
    $var wire 32 r s1 [31:0] $end
    $var wire 32 P s2 [31:0] $end
    $var wire  2 ] sel [1:0] $end
    $var wire 32 Y! size [31:0] $end
   $upscope $end
   $scope module m_Mux_PC_1 $end
    $var wire 32 N! out [31:0] $end
    $var wire 32 o s0 [31:0] $end
    $var wire 32 T! s1 [31:0] $end
    $var wire  1 +! sel $end
    $var wire 32 Y! size [31:0] $end
   $upscope $end
   $scope module m_Mux_PC_2 $end
    $var wire 32 O! out [31:0] $end
    $var wire 32 N! s0 [31:0] $end
    $var wire 32 n s1 [31:0] $end
    $var wire  1 w sel $end
    $var wire 32 Y! size [31:0] $end
   $upscope $end
   $scope module m_Mux_PCorR1 $end
    $var wire 32 P! out [31:0] $end
    $var wire 32 C s0 [31:0] $end
    $var wire 32 (! s1 [31:0] $end
    $var wire  1 '! sel $end
    $var wire 32 Y! size [31:0] $end
   $upscope $end
   $scope module m_Mux_WriteData $end
    $var wire 32 P out [31:0] $end
    $var wire 32 M s0 [31:0] $end
    $var wire 32 N s1 [31:0] $end
    $var wire 32 L s2 [31:0] $end
    $var wire  2 Z sel [1:0] $end
    $var wire 32 Y! size [31:0] $end
   $upscope $end
   $scope module m_PC $end
    $var wire  1 ,! clk $end
    $var wire 32 O! pc_i [31:0] $end
    $var wire 32 n pc_o [31:0] $end
    $var wire  1 -! rst $end
   $upscope $end
   $scope module m_Register $end
    $var wire  1 ,! clk $end
    $var wire 32 Q! readData1 [31:0] $end
    $var wire 32 R! readData2 [31:0] $end
    $var wire  5 g readReg1 [4:0] $end
    $var wire  5 h readReg2 [4:0] $end
    $var wire  1 [ regWrite $end
    $var wire 32 # regs[0] [31:0] $end
    $var wire 32 - regs[10] [31:0] $end
    $var wire 32 . regs[11] [31:0] $end
    $var wire 32 / regs[12] [31:0] $end
    $var wire 32 0 regs[13] [31:0] $end
    $var wire 32 1 regs[14] [31:0] $end
    $var wire 32 2 regs[15] [31:0] $end
    $var wire 32 3 regs[16] [31:0] $end
    $var wire 32 4 regs[17] [31:0] $end
    $var wire 32 5 regs[18] [31:0] $end
    $var wire 32 6 regs[19] [31:0] $end
    $var wire 32 $ regs[1] [31:0] $end
    $var wire 32 7 regs[20] [31:0] $end
    $var wire 32 8 regs[21] [31:0] $end
    $var wire 32 9 regs[22] [31:0] $end
    $var wire 32 : regs[23] [31:0] $end
    $var wire 32 ; regs[24] [31:0] $end
    $var wire 32 < regs[25] [31:0] $end
    $var wire 32 = regs[26] [31:0] $end
    $var wire 32 > regs[27] [31:0] $end
    $var wire 32 ? regs[28] [31:0] $end
    $var wire 32 @ regs[29] [31:0] $end
    $var wire 32 % regs[2] [31:0] $end
    $var wire 32 A regs[30] [31:0] $end
    $var wire 32 B regs[31] [31:0] $end
    $var wire 32 & regs[3] [31:0] $end
    $var wire 32 ' regs[4] [31:0] $end
    $var wire 32 ( regs[5] [31:0] $end
    $var wire 32 ) regs[6] [31:0] $end
    $var wire 32 * regs[7] [31:0] $end
    $var wire 32 + regs[8] [31:0] $end
    $var wire 32 , regs[9] [31:0] $end
    $var wire  1 -! rst $end
    $var wire 32 P writeData [31:0] $end
    $var wire  5 l writeReg [4:0] $end
   $upscope $end
   $scope module m_ShiftLeftOne $end
    $var wire 32 F i [31:0] $end
    $var wire 32 Q o [31:0] $end
   $upscope $end
  $upscope $end
 $upscope $end
$enddefinitions $end


#0
b00000000000000000000000000000000 #
b00000000000000000000000000000000 $
b00000000000000000000000000000000 %
b00000000000000000000000000000000 &
b00000000000000000000000000000000 '
b00000000000000000000000000000000 (
b00000000000000000000000000000000 )
b00000000000000000000000000000000 *
b00000000000000000000000000000000 +
b00000000000000000000000000000000 ,
b00000000000000000000000000000000 -
b00000000000000000000000000000000 .
b00000000000000000000000000000000 /
b00000000000000000000000000000000 0
b00000000000000000000000000000000 1
b00000000000000000000000000000000 2
b00000000000000000000000000000000 3
b00000000000000000000000000000000 4
b00000000000000000000000000000000 5
b00000000000000000000000000000000 6
b00000000000000000000000000000000 7
b00000000000000000000000000000000 8
b00000000000000000000000000000000 9
b00000000000000000000000000000000 :
b00000000000000000000000000000000 ;
b00000000000000000000000000000000 <
b00000000000000000000000000000000 =
b00000000000000000000000000000000 >
b00000000000000000000000000000000 ?
b00000000000000000000000000000000 @
b00000000000000000000000000000000 A
b00000000000000000000000000000000 B
b00000000000000000000000000000000 C
b00000000000000000000000000000000 D
b00000000000000000000000000000000 E
b00000000000000000000000000000000 F
b00000000000000000000000000000000 G
b00000000000000000000000000000000 H
b00000000000000000000000000000000 I
b00000000000000000000000000000000 J
b00000000000000000000000000000000 K
b00000000000000000000000000000000 L
b00000000000000000000000000000000 M
b00000000000000000000000000000000 N
b00000000000000000000000000000000 O
b00000000000000000000000000000000 P
b00000000000000000000000000000000 Q
b00 R
b00 S
0T
0U
0V
b00 W
0X
0Y
b00 Z
0[
b00 \
b00 ]
b00 ^
b00 _
b00000000000000000000000000000000 `
b00000000000000000000000000000000 a
b00000000000000000000000000000000 b
0c
b000 d
b0000000 e
b000 f
b00000 g
b00000 h
b00000 i
b00000 j
b00000 k
b00000 l
b00000 m
b00000000000000000000000000000000 n
b00000000000000000000000000000100 o
b00000000101100000000001100010011 p
b00000000000000000000000000000000 q
b00000000000000000000000000000000 r
b00000000000000000000000000000000 s
b0010 t
0u
0v
0w
0x
b00000000000000000000000000000000 y
b00000000000000000000000000000000 z
b00 {
b00 |
b00 }
0~
0!!
0"!
0#!
1$!
0%!
0&!
0'!
b00000000000000000000000000000000 (!
b00000000000000000000000000000000 )!
b000000000000 *!
0+!
0,!
1-!
b00000000000000000000000000000000 .!
b00000000000000000000000000000000 /!
b00000000000000000000000000000000 0!
b00000000000000000000000000000000 1!
b00000000000000000000000000000000 2!
b00000000000000000000000000000000 3!
b00000000000000000000000000000000 4!
b00000000000000000000000000000000 5!
b00000000000000000000000000000000 6!
b00000000000000000000000000000000 7!
b00000000000000000000000000000000 8!
b00000000000000000000000000000000 9!
b00000000000000000000000000000000 :!
b00000000000000000000000000000000 ;!
b00000000000000000000000000000000 <!
b00000000000000000000000000000000 =!
b00000000000000000000000000000000 >!
b00000000000000000000000000000000 ?!
b00000000000000000000000000000000 @!
b00000000000000000000000000000000 A!
b00000000000000000000000000000000 B!
b00000000000000000000000000000000 C!
b00000000000000000000000000000000 D!
b00000000000000000000000000000000 E!
b00000000000000000000000000000000 F!
b00000000000000000000000000000000 G!
b00000000000000000000000000000000 H!
b00000000000000000000000000000000 I!
b00000000000000000000000000000000 J!
b00000000000000000000000000000000 K!
b00000000000000000000000000000000 L!
b00000000000000000000000000000000 M!
b00000000000000000000000000000100 N!
b00000000000000000000000000000100 O!
b00000000000000000000000000000000 P!
b00000000000000000000000000000000 Q!
b00000000000000000000000000000000 R!
b00000000000000000000000000000000 S!
b00000000000000000000000000000000 T!
b00000000000000000000000000000000 U!
b00000000000000000000000000000000 V!
b00000000000000000000000000000000 W!
b00000000000000000000000000000100 X!
b00000000000000000000000000100000 Y!
#1
b00000000000000000000000010000000 %
1,!
0-!
b00000000000000000000000010000000 0!
#2
b00000000000000000000000000000100 D
b00000000101100000000001100010011 E
b00000000000000000000000000001011 F
b00000000000000000000000000010110 Q
b0010011 e
b01011 h
b00000000000000000000000000000100 n
b00000000000000000000000000001000 o
b00000000000100000000000110010011 p
b11 }
1~
1#!
b000001101100 *!
0,!
1-!
b00000000000000000000000000001000 N!
b00000000000000000000000000001000 O!
b00000000000000000000000000010110 T!
#3
1,!
#4
b00000000000000000000000000000100 C
b00000000000000000000000000001000 D
b00000000000100000000000110010011 E
b00000000000000000000000000000001 F
b00000000000000000000000000001011 G
b00000000000000000000000000000100 H
b00000000101100000000001100010011 I
b00000000000000000000000000000010 Q
b11 S
1T
1V
b00001 h
b01011 j
b00110 m
b00000000000000000000000000001000 n
b00000000000000000000000000001100 o
b00000000000000000000001000010011 p
b00000000000000000000000000001011 q
b00000000000000000000000000001011 s
0,!
b00000000000000000000000000001100 N!
b00000000000000000000000000001100 O!
b00000000000000000000000000000100 P!
b00000000000000000000000000000110 T!
#5
1,!
#6
b00000000000000000000000000001000 C
b00000000000000000000000000001100 D
b00000000000000000000001000010011 E
b00000000000000000000000000000000 F
b00000000000000000000000000000001 G
b00000000000000000000000000001000 H
b00000000000100000000000110010011 I
b00000000000000000000000000000100 J
b00000000101100000000001100010011 K
b00000000000000000000000000000000 Q
1X
b00000 h
b00001 j
b00110 k
b00011 m
b00000000000000000000000000001100 n
b00000000000000000000000000010000 o
b00000000001000000000001010010011 p
b00000000000000000000000000000001 q
b00000000000000000000000000001011 r
b00000000000000000000000000000001 s
0,!
b00000000000000000000000000010000 N!
b00000000000000000000000000010000 O!
b00000000000000000000000000001000 P!
b00000000000000000000000000001000 T!
#7
1,!
#8
b00000000000000000000000000001100 C
b00000000000000000000000000010000 D
b00000000001000000000001010010011 E
b00000000000000000000000000000010 F
b00000000000000000000000000000000 G
b00000000000000000000000000001100 H
b00000000000000000000001000010011 I
b00000000000000000000000000001000 J
b00000000000100000000000110010011 K
b00000000000000000000000000000100 L
b00000000000000000000000000001011 M
b00000000101100000000001100010011 O
b00000000000000000000000000001011 P
b00000000000000000000000000000100 Q
1[
b00010 h
b00000 j
b00011 k
b00110 l
b00100 m
b00000000000000000000000000010000 n
b00000000000000000000000000010100 o
b00000000010100110100110001100011 p
b00000000000000000000000000000000 q
b00000000000000000000000000000001 r
b00000000000000000000000000000000 s
0$!
1%!
b00000000000000000000000010000000 )!
0,!
b00000000000000000000000000010100 N!
b00000000000000000000000000010100 O!
b00000000000000000000000000001100 P!
b00000000000000000000000010000000 R!
b00000000000000000000000000010000 T!
#9
1,!
#10
b00000000000000000000000000001011 )
b00000000000000000000000000010000 C
b00000000000000000000000000010100 D
b00000000010100110100110001100011 E
b00000000000000000000000000001100 F
b00000000000000000000000000000010 G
b00000000000000000000000000010000 H
b00000000001000000000001010010011 I
b00000000000000000000000000001100 J
b00000000000000000000001000010011 K
b00000000000000000000000000001000 L
b00000000000000000000000000000001 M
b00000000000100000000000110010011 O
b00000000000000000000000000000001 P
b00000000000000000000000000011000 Q
b00000000000000000000000010000000 a
b1100011 e
b100 f
b00110 g
b00101 h
b00010 j
b00100 k
b00011 l
b00101 m
b00000000000000000000000000010100 n
b00000000000000000000000000011000 o
b00000000010000011000000100110011 p
b00000000000000000000000000000010 q
b00000000000000000000000000000000 r
b00000000000000000000000000000010 s
1w
1x
b00000000000000000000000010000000 z
b00 }
0~
0#!
0%!
b00000000000000000000000000001011 (!
b00000000000000000000000000000000 )!
b000000000000 *!
0,!
b00000000000000000000000000001011 4!
b00000000000000000000000000011000 N!
b00000000000000000000000000010000 P!
b00000000000000000000000000001011 Q!
b00000000000000000000000000000000 R!
b00000000000000000000000000101000 T!
#11
1,!
#12
b00000000000000000000000000000001 &
b00000000000000000000000000000000 G
b00000000000000000000000000000000 H
b00000000000000000000000000010011 I
b00000000000000000000000000010000 J
b00000000001000000000001010010011 K
b00000000000000000000000000001100 L
b00000000000000000000000000000000 M
b00000000000000000000001000010011 O
b00000000000000000000000000000000 P
b00 S
0T
0V
b01 ]
b00000000000000000000000000000000 a
b00000000000000000000000010000000 b
b00000 j
b00101 k
b00100 l
b00000 m
b00000000000000000000000000000000 q
b00000000000000000000000000000010 r
b00000000000000000000000000000000 s
0w
0x
b00000000000000000000000000000000 z
b00000000000000000000000000000010 )!
0,!
b00000000000000000000000000000001 1!
b00000000000000000000000000011000 O!
#13
1,!
#14
b00000000000000000000000000010100 C
b00000000000000000000000000011000 D
b00000000010000011000000100110011 E
b00000000000000000000000000000000 F
b00000000000000000000000000001100 G
b00000000000000000000000000010100 H
b00000000010100110100110001100011 I
b00000000000000000000000000000000 J
b00000000000000000000000000010011 K
b00000000000000000000000000010000 L
b00000000000000000000000000000010 M
b00000000001000000000001010010011 O
b00000000000000000000000000000010 P
b00000000000000000000000000000000 Q
0X
b00 ]
b01 _
b00000000000000000000000000001011 `
b00000000000000000000000000000010 a
b00000000000000000000000000000000 b
b100 d
b0110011 e
b000 f
b00011 g
b00100 h
b00110 i
b00101 j
b00000 k
b00101 l
b11000 m
b00000000000000000000000000011000 n
b00000000000000000000000000011100 o
b00000000000000011000001000110011 p
b00000000000000000000000000001101 q
b00000000000000000000000000000000 r
b00000000000000000000000000000010 s
b00000000000000000000000000001011 y
b00000000000000000000000000000010 z
b10 }
1~
b00000000000000000000000000000001 (!
b00000000000000000000000000000000 )!
b000001000100 *!
0,!
b00000000000000000000000000011100 N!
b00000000000000000000000000011100 O!
b00000000000000000000000000010100 P!
b00000000000000000000000000000001 Q!
b00000000000000000000000000010100 T!
#15
1,!
#16
b00000000000000000000000000000010 (
b00000000000000000000000000011000 C
b00000000000000000000000000011100 D
b00000000000000011000001000110011 E
b00000000000000000000000000000000 G
b00000000000000000000000000011000 H
b00000000010000011000000100110011 I
b00000000000000000000000000010100 J
b00000000010100110100110001100011 K
b00000000000000000000000000000000 L
b00000000000000000000000000000000 M
b00000000000000000000000000010011 O
b00000000000000000000000000000000 P
b10 S
1T
0[
b00 _
b00000000000000000000000000000001 `
b00000000000000000000000000000000 a
b00000000000000000000000000000010 b
b000 d
b00000 h
b00011 i
b00100 j
b11000 k
b00000 l
b00010 m
b00000000000000000000000000011100 n
b00000000000000000000000000100000 o
b00000000000000010000000110110011 p
b00000000000000000000000000000001 q
b00000000000000000000000000001101 r
b00000000000000000000000000000000 s
b00000000000000000000000000000001 y
b00000000000000000000000000000000 z
0,!
b00000000000000000000000000000010 3!
b00000000000000000000000000100000 N!
b00000000000000000000000000100000 O!
b00000000000000000000000000011000 P!
b00000000000000000000000000011000 T!
#17
1,!
#18
b00000000000000000000000000011100 C
b00000000000000000000000000100000 D
b00000000000000010000000110110011 E
b00000000000000000000000000011100 H
b00000000000000011000001000110011 I
b00000000000000000000000000011000 J
b00000000010000011000000100110011 K
b00000000000000000000000000010100 L
b00000000000000000000000000001101 M
b00000000010100110100110001100011 O
b00000000000000000000000000001101 P
1X
b01 \
b00000000000000000000000000000000 b
b00010 g
b00000 j
b00010 k
b11000 l
b00100 m
b00000000000000000000000000100000 n
b00000000000000000000000000100100 o
b00000000000100101000001010010011 p
b00000000000000000000000000000001 r
0,!
b00000000000000000000000000100100 N!
b00000000000000000000000000100100 O!
b00000000000000000000000000011100 P!
b00000000000000000000000010000000 Q!
b00000000000000000000000000011100 T!
#19
1,!
#20
b00000000000000000000000000100000 C
b00000000000000000000000000100100 D
b00000000000100101000001010010011 E
b00000000000000000000000000000001 F
b00000000000000000000000000100000 H
b00000000000000010000000110110011 I
b00000000000000000000000000011100 J
b00000000000000011000001000110011 K
b00000000000000000000000000011000 L
b00000000000000000000000000000001 M
b00000000010000011000000100110011 O
b00000000000000000000000000000001 P
b00000000000000000000000000000010 Q
1[
b00 \
b01 ^
b0010011 e
b00101 g
b00001 h
b00010 i
b00100 k
b00010 l
b00011 m
b00000000000000000000000000100100 n
b00000000000000000000000000101000 o
b11111110110111111111000001101111 p
b11 }
1#!
b00000000000000000000000000000010 (!
b000001101100 *!
0,!
b00000000000000000000000000101000 N!
b00000000000000000000000000101000 O!
b00000000000000000000000000100000 P!
b00000000000000000000000000000010 Q!
b00000000000000000000000000100010 T!
#21
1,!
